<?xml version="1.0" encoding="UTF-8" standalone="no"?>
<!-- Created with Inkscape (http://www.inkscape.org/) -->

<svg
   xmlns:dc="http://purl.org/dc/elements/1.1/"
   xmlns:cc="http://creativecommons.org/ns#"
   xmlns:rdf="http://www.w3.org/1999/02/22-rdf-syntax-ns#"
   xmlns:svg="http://www.w3.org/2000/svg"
   xmlns="http://www.w3.org/2000/svg"
   xmlns:sodipodi="http://sodipodi.sourceforge.net/DTD/sodipodi-0.dtd"
   xmlns:inkscape="http://www.inkscape.org/namespaces/inkscape"
   width="210mm"
   height="297mm"
   viewBox="0 0 744.09448819 1052.3622047"
   id="svg2"
   version="1.1"
   inkscape:version="0.91 r13725"
   sodipodi:docname="cereza.svg">
  <defs
     id="defs4" />
  <sodipodi:namedview
     id="base"
     pagecolor="#ffffff"
     bordercolor="#666666"
     borderopacity="1.0"
     inkscape:pageopacity="0.0"
     inkscape:pageshadow="2"
     inkscape:zoom="2.8"
     inkscape:cx="173.69496"
     inkscape:cy="662.83644"
     inkscape:document-units="px"
     inkscape:current-layer="layer2"
     showgrid="false"
     inkscape:window-width="1298"
     inkscape:window-height="745"
     inkscape:window-x="-8"
     inkscape:window-y="-8"
     inkscape:window-maximized="1" />
  <metadata
     id="metadata7">
    <rdf:RDF>
      <cc:Work
         rdf:about="">
        <dc:format>image/svg+xml</dc:format>
        <dc:type
           rdf:resource="http://purl.org/dc/dcmitype/StillImage" />
        <dc:title></dc:title>
      </cc:Work>
    </rdf:RDF>
  </metadata>
  <g
     inkscape:label="Capa 1"
     inkscape:groupmode="layer"
     id="layer1">
    <rect
       style="opacity:1;fill:#000080;fill-opacity:0.90222222;stroke:none;stroke-width:2.79999995;stroke-miterlimit:4;stroke-dasharray:none;stroke-opacity:1"
       id="rect4136"
       width="80"
       height="80"
       x="187.14285"
       y="338.07648" />
    <circle
       style="opacity:1;fill:#ff0000;fill-opacity:1;stroke:#000000;stroke-width:0.80061668;stroke-miterlimit:4;stroke-dasharray:none;stroke-opacity:1"
       id="path4138"
       cx="212.35245"
       cy="392.14685"
       r="15.726398" />
    <circle
       style="opacity:1;fill:#ff0000;fill-opacity:1;stroke:#000000;stroke-width:0.80061668;stroke-miterlimit:4;stroke-dasharray:none;stroke-opacity:1"
       id="path4138-4"
       cx="237.00667"
       cy="400.18207"
       r="15.726398" />
    <path
       style="fill:none;fill-rule:evenodd;stroke:#9b6161;stroke-width:1.83426774;stroke-linecap:butt;stroke-linejoin:miter;stroke-miterlimit:4;stroke-dasharray:none;stroke-opacity:1"
       d="m 215.61184,385.72544 c 0,0 5.27957,-12.93827 21.31839,-25.15473 8.96643,-6.82956 18.39353,-11.89224 18.39353,-11.89224 0,0 -11.87967,6.39291 -16.05785,11.98895 -4.21024,5.63899 -4.61683,31.24575 -4.61683,31.24575"
       id="path4161"
       inkscape:connector-curvature="0"
       sodipodi:nodetypes="cscsc" />
  </g>
  <g
     inkscape:groupmode="layer"
     id="layer2"
     inkscape:label="Capa 2">
    <path
       style="opacity:1;fill:#ffffff;fill-opacity:1;stroke:none;stroke-width:1.60000002;stroke-miterlimit:4;stroke-dasharray:none;stroke-opacity:1"
       d="m 203.05919,395.26227 a 8.006528,5.8035712 0 0 0 -1.00506,2.81446 8.006528,5.8035712 0 0 0 8.00538,5.80273 8.006528,5.8035712 0 0 0 6.2728,-2.20508 12.440913,9.0178566 0 0 1 -1.34456,0.0625 12.440913,9.0178566 0 0 1 -11.92856,-6.47461 z"
       id="path4177"
       inkscape:connector-curvature="0" />
    <g
       id="g4220-9"
       transform="translate(-88.035712,-52.678555)">
      <circle
         r="5.8035712"
         cy="426.46933"
         cx="197.5"
         id="path4177-8"
         style="opacity:1;fill:#efff00;fill-opacity:1;stroke:none;stroke-width:1.60000002;stroke-miterlimit:4;stroke-dasharray:none;stroke-opacity:1" />
      <circle
         r="5.8035712"
         cy="423.96933"
         cx="199.64285"
         id="path4177-1-9"
         style="opacity:1;fill:#68ff00;fill-opacity:1;stroke:none;stroke-width:1.60000002;stroke-miterlimit:4;stroke-dasharray:none;stroke-opacity:1" />
    </g>
    <path
       style="opacity:1;fill:#ffffff;fill-opacity:1;stroke:none;stroke-width:1.60000002;stroke-miterlimit:4;stroke-dasharray:none;stroke-opacity:1"
       d="m 228.66226,405.13669 a 7.8062584,5.6033024 0 0 0 -0.97992,2.71734 7.8062584,5.6033024 0 0 0 7.80514,5.60249 7.8062584,5.6033024 0 0 0 6.1159,-2.12899 12.129725,8.7066697 0 0 1 -1.31092,0.0603 12.129725,8.7066697 0 0 1 -11.6302,-6.25119 z"
       id="path4177-9"
       inkscape:connector-curvature="0" />
  </g>
</svg>
