<?xml version="1.0" encoding="UTF-8" standalone="no"?>
<!-- Created with Inkscape (http://www.inkscape.org/) -->

<svg
   xmlns:dc="http://purl.org/dc/elements/1.1/"
   xmlns:cc="http://creativecommons.org/ns#"
   xmlns:rdf="http://www.w3.org/1999/02/22-rdf-syntax-ns#"
   xmlns:svg="http://www.w3.org/2000/svg"
   xmlns="http://www.w3.org/2000/svg"
   xmlns:sodipodi="http://sodipodi.sourceforge.net/DTD/sodipodi-0.dtd"
   xmlns:inkscape="http://www.inkscape.org/namespaces/inkscape"
   width="210mm"
   height="297mm"
   viewBox="0 0 744.09448819 1052.3622047"
   id="svg2"
   version="1.1"
   inkscape:version="0.91 r13725"
   sodipodi:docname="fantasmaVulnerableBase2.svg">
  <defs
     id="defs4" />
  <sodipodi:namedview
     id="base"
     pagecolor="#ffffff"
     bordercolor="#666666"
     borderopacity="1.0"
     inkscape:pageopacity="0.0"
     inkscape:pageshadow="2"
     inkscape:zoom="3.959798"
     inkscape:cx="191.5705"
     inkscape:cy="489.89562"
     inkscape:document-units="px"
     inkscape:current-layer="layer1"
     showgrid="false"
     inkscape:window-width="1298"
     inkscape:window-height="745"
     inkscape:window-x="-8"
     inkscape:window-y="-8"
     inkscape:window-maximized="1" />
  <metadata
     id="metadata7">
    <rdf:RDF>
      <cc:Work
         rdf:about="">
        <dc:format>image/svg+xml</dc:format>
        <dc:type
           rdf:resource="http://purl.org/dc/dcmitype/StillImage" />
        <dc:title></dc:title>
      </cc:Work>
    </rdf:RDF>
  </metadata>
  <g
     inkscape:label="Capa 1"
     inkscape:groupmode="layer"
     id="layer1">
    <rect
       style="opacity:1;fill:#ffffff;fill-opacity:0"
       id="rect4142-9"
       width="80"
       height="80"
       x="154.28516"
       y="543.79102"
       inkscape:export-filename="C:\Users\Neycker\Desktop\fantasmaV2.png"
       inkscape:export-xdpi="90"
       inkscape:export-ydpi="90" />
    <ellipse
       style="opacity:1;fill:#0000ff;fill-opacity:0.96444445"
       id="path4149-8-23"
       cx="102.22366"
       cy="535.94025"
       rx="10.265284"
       ry="12.35658" />
    <ellipse
       style="opacity:1;fill:#0000ff;fill-opacity:0.96444445"
       id="path4149-1-61"
       cx="42.839733"
       cy="538.90759"
       rx="13.258252"
       ry="18.796303" />
    <ellipse
       style="opacity:1;fill:#0000ff;fill-opacity:0.96444445"
       id="path4149-8-2-4"
       cx="22.257879"
       cy="535.94025"
       rx="10.265284"
       ry="12.35658" />
    <ellipse
       style="opacity:1;fill:#0000ff;fill-opacity:0.96444445"
       id="path4149-1-0-0"
       cx="63.169048"
       cy="538.90759"
       rx="13.258252"
       ry="18.796303" />
    <ellipse
       style="opacity:1;fill:#0000ff;fill-opacity:0.96444445"
       id="path4149-1-6-4"
       cx="82.614479"
       cy="538.90759"
       rx="13.258252"
       ry="18.796303" />
    <g
       id="g4613" />
    <g
       transform="translate(-136.81758,3.6423285)"
       id="g4613-5">
      <ellipse
         ry="18.796303"
         rx="13.258252"
         cy="630.57648"
         cx="173.81325"
         id="path4149-1-61-5-9"
         style="opacity:1;fill:#0000ff;fill-opacity:0.96444445" />
      <ellipse
         ry="18.796303"
         rx="13.258252"
         cy="630.57648"
         cx="194.14256"
         id="path4149-1-0-0-0-7"
         style="opacity:1;fill:#0000ff;fill-opacity:0.96444445" />
      <ellipse
         ry="18.796303"
         rx="13.258252"
         cy="630.57648"
         cx="213.588"
         id="path4149-1-6-4-0-2"
         style="opacity:1;fill:#0000ff;fill-opacity:0.96444445" />
      <ellipse
         ry="18.796303"
         rx="13.258252"
         cy="630.57648"
         cx="153.29066"
         id="path4149-1-61-5-4-6"
         style="opacity:1;fill:#0000ff;fill-opacity:0.96444445" />
      <ellipse
         ry="18.796303"
         rx="13.258252"
         cy="630.57648"
         cx="233.92856"
         id="path4149-1-61-5-4-9-2"
         style="opacity:1;fill:#0000ff;fill-opacity:0.96444445" />
    </g>
    <g
       id="g4697">
      <ellipse
         ry="12.232142"
         rx="8.5714283"
         cy="538.07654"
         cx="265.625"
         id="path4662-5"
         style="opacity:1;fill:#de8787;fill-opacity:0.96444445" />
      <ellipse
         ry="12.232142"
         rx="8.5714283"
         cy="538.07654"
         cx="298.66071"
         id="path4662-0-5"
         style="opacity:1;fill:#de8787;fill-opacity:0.96444445" />
    </g>
    <g
       id="g4718">
      <ellipse
         ry="4.375"
         rx="3.4821429"
         cy="539.05859"
         cx="265.44644"
         id="path4701"
         style="opacity:1;fill:#00ffff;fill-opacity:0.96444445;stroke:#000000;stroke-width:0.30000001;stroke-miterlimit:4;stroke-dasharray:none;stroke-opacity:1" />
      <ellipse
         ry="4.375"
         rx="3.4821429"
         cy="539.05859"
         cx="298.92856"
         id="path4701-2"
         style="opacity:1;fill:#00ffff;fill-opacity:0.96444445;stroke:#000000;stroke-width:0.30000001;stroke-miterlimit:4;stroke-dasharray:none;stroke-opacity:1" />
    </g>
    <path
       style="opacity:1;fill:#b1b1b1;fill-opacity:0.96444446"
       d="m 194.3298,547.95703 a 35,34.334338 0 0 0 -3.49414,0.17578 35,34.334338 0 0 0 -3.45899,0.51563 35,34.334338 0 0 0 -3.38867,0.85351 35,34.334338 0 0 0 -3.28516,1.17969 35,34.334338 0 0 0 -3.14843,1.49805 35,34.334338 0 0 0 -2.98047,1.79687 35,34.334338 0 0 0 -2.78321,2.08008 35,34.334338 0 0 0 -2.55664,2.3418 35,34.334338 0 0 0 -2.30468,2.58203 35,34.334338 0 0 0 -2.03321,2.79297 35,34.334338 0 0 0 -1.73633,2.98047 35,34.334338 0 0 0 -1.42578,3.13281 35,34.334338 0 0 0 -1.09961,3.25781 35,34.334338 0 0 0 -0.76172,3.35156 35,34.334338 0 0 0 -0.41796,3.40625 35,34.334338 0 0 0 -0.0176,0.27735 l -0.10742,0 0,2.11133 0,20.90039 0,3.09179 0,7.34375 a 13.258252,18.796303 0 0 1 4.57812,5.06446 13.258252,18.796303 0 0 1 10.26172,-6.91211 13.258252,18.796303 0 0 1 10.1582,6.74414 13.258252,18.796303 0 0 1 10.17188,-6.74414 13.258252,18.796303 0 0 1 9.72656,6.04687 13.258252,18.796303 0 0 1 9.71875,-6.04687 13.258252,18.796303 0 0 1 10.16406,6.75586 13.258252,18.796303 0 0 1 5.22071,-5.37696 l 0,-6.875 0,-3.09179 0,-20.90039 0,-2.10938 -0.0762,0 a 35,34.334338 0 0 0 -0.38867,-3.41211 35,34.334338 0 0 0 -0.73437,-3.35547 35,34.334338 0 0 0 -1.07227,-3.26758 35,34.334338 0 0 0 -1.40039,-3.14453 35,34.334338 0 0 0 -1.71289,-2.99218 35,34.334338 0 0 0 -2.00781,-2.81055 35,34.334338 0 0 0 -2.28516,-2.59961 35,34.334338 0 0 0 -2.53711,-2.36133 35,34.334338 0 0 0 -2.76562,-2.10156 35,34.334338 0 0 0 -2.96485,-1.82227 35,34.334338 0 0 0 -3.13672,-1.52148 35,34.334338 0 0 0 -3.27539,-1.20899 35,34.334338 0 0 0 -3.38085,-0.8789 35,34.334338 0 0 0 -3.45508,-0.54297 35,34.334338 0 0 0 -3.49219,-0.20313 35,34.334338 0 0 0 -0.31445,-0.002 z"
       id="path4269"
       inkscape:export-filename="C:\Users\Neycker\Desktop\fantasmaV2.png"
       inkscape:export-xdpi="90"
       inkscape:export-ydpi="90" />
    <ellipse
       style="opacity:1;fill:#ffffff;fill-opacity:0.96444445"
       id="path4662"
       cx="178.24492"
       cy="577.98718"
       rx="8.5714283"
       ry="12.232142"
       inkscape:export-filename="C:\Users\Neycker\Desktop\fantasmaV2.png"
       inkscape:export-xdpi="90"
       inkscape:export-ydpi="90" />
    <ellipse
       style="opacity:1;fill:#ffffff;fill-opacity:0.96444445"
       id="path4662-0"
       cx="211.78572"
       cy="577.98718"
       rx="8.5714283"
       ry="12.232142"
       inkscape:export-filename="C:\Users\Neycker\Desktop\fantasmaV2.png"
       inkscape:export-xdpi="90"
       inkscape:export-ydpi="90" />
    <g
       id="g4749"
       transform="translate(0.35714286,0.17857143)"
       inkscape:export-filename="C:\Users\Neycker\Desktop\fantasmaV2.png"
       inkscape:export-xdpi="90"
       inkscape:export-ydpi="90"
       style="fill:#0d20cb;fill-opacity:1;stroke:none">
      <path
         inkscape:connector-curvature="0"
         id="path4785"
         d="m 214.46559,578.25506 a 3.4821429,4.375 0 0 1 -3.48214,4.375 3.4821429,4.375 0 0 1 -3.48214,-4.375 3.4821429,4.375 0 0 1 3.48214,-4.375 3.4821429,4.375 0 0 1 3.48214,4.375 z"
         style="opacity:1;fill:#0d20cb;fill-opacity:1;stroke:none;stroke-width:0.2;stroke-miterlimit:4;stroke-dasharray:none;stroke-opacity:1" />
      <path
         inkscape:connector-curvature="0"
         id="path4701-2-1"
         d="m 180.98347,578.25506 a 3.4821429,4.375 0 0 1 -3.48214,4.375 3.4821429,4.375 0 0 1 -3.48214,-4.375 3.4821429,4.375 0 0 1 3.48214,-4.375 3.4821429,4.375 0 0 1 3.48214,4.375 z"
         style="opacity:1;fill:#0d20cb;fill-opacity:1;stroke:none;stroke-width:0.2;stroke-miterlimit:4;stroke-dasharray:none;stroke-opacity:1" />
    </g>
    <path
       style="fill:#000000;fill-rule:evenodd;stroke:#0d20cb;stroke-width:2.8;stroke-linecap:butt;stroke-linejoin:miter;stroke-opacity:1;stroke-miterlimit:4;stroke-dasharray:none;fill-opacity:0"
       d="m 165.89286,603.07649 c 0,0 7.83281,-6.92301 12.67856,-7.14285 5.8021,-0.26322 9.01764,6.74121 14.82143,6.96428 6.32168,0.24297 11.53228,-6.56554 17.85715,-6.42857 4.60029,0.0996 10.89286,6.60714 10.89286,6.60714"
       id="path4164"
       inkscape:connector-curvature="0"
       sodipodi:nodetypes="csssc"
       inkscape:export-filename="C:\Users\Neycker\Desktop\fantasmaV2.png"
       inkscape:export-xdpi="90"
       inkscape:export-ydpi="90" />
    <path
       style="fill:#000000;fill-opacity:0;fill-rule:evenodd;stroke:#bb5755;stroke-width:2.79999995;stroke-linecap:butt;stroke-linejoin:miter;stroke-miterlimit:4;stroke-dasharray:none;stroke-opacity:1"
       d="m 252.42964,604.83981 c 0,0 7.83281,-6.92301 12.67856,-7.14285 5.8021,-0.26322 9.01764,6.74121 14.82143,6.96428 6.32168,0.24297 11.53228,-6.56554 17.85715,-6.42857 4.60029,0.0996 10.89286,6.60714 10.89286,6.60714"
       id="path4164-9"
       inkscape:connector-curvature="0"
       sodipodi:nodetypes="csssc" />
  </g>
</svg>
