^C:\USERS\NEYCKER\DOCUMENTS\GITREPOS\PACMAN\PROYECTO1\PROYECTO1\DEBUG\AGENTE.OBJ|C:\USERS\NEYCKER\DOCUMENTS\GITREPOS\PACMAN\PROYECTO1\PROYECTO1\DEBUG\COCO.OBJ|C:\USERS\NEYCKER\DOCUMENTS\GITREPOS\PACMAN\PROYECTO1\PROYECTO1\DEBUG\ELEMENTOESTATICO.OBJ|C:\USERS\NEYCKER\DOCUMENTS\GITREPOS\PACMAN\PROYECTO1\PROYECTO1\DEBUG\ESTADISTICA.OBJ|C:\USERS\NEYCKER\DOCUMENTS\GITREPOS\PACMAN\PROYECTO1\PROYECTO1\DEBUG\FANTASMA.OBJ|C:\USERS\NEYCKER\DOCUMENTS\GITREPOS\PACMAN\PROYECTO1\PROYECTO1\DEBUG\FRUTA.OBJ|C:\USERS\NEYCKER\DOCUMENTS\GITREPOS\PACMAN\PROYECTO1\PROYECTO1\DEBUG\JUEGOPRINCIPAL.OBJ|C:\USERS\NEYCKER\DOCUMENTS\GITREPOS\PACMAN\PROYECTO1\PROYECTO1\DEBUG\NIVEL.OBJ|C:\USERS\NEYCKER\DOCUMENTS\GITREPOS\PACMAN\PROYECTO1\PROYECTO1\DEBUG\PACMAN.OBJ|C:\USERS\NEYCKER\DOCUMENTS\GITREPOS\PACMAN\PROYECTO1\PROYECTO1\DEBUG\PROYECTO1.OBJ|C:\USERS\NEYCKER\DOCUMENTS\GITREPOS\PACMAN\PROYECTO1\PROYECTO1\DEBUG\PUERTA.OBJ|C:\USERS\NEYCKER\DOCUMENTS\GITREPOS\PACMAN\PROYECTO1\PROYECTO1\DEBUG\STDAFX.OBJ
C:\USERS\NEYCKER\DOCUMENTS\GITREPOS\PACMAN\PROYECTO1\DEPS\LIB\SDL2.LIB
C:\USERS\NEYCKER\DOCUMENTS\GITREPOS\PACMAN\PROYECTO1\DEPS\LIB\SDL2MAIN.LIB
C:\USERS\NEYCKER\DOCUMENTS\GITREPOS\PACMAN\PROYECTO1\DEPS\LIB\SDL2_TTF.LIB
C:\USERS\NEYCKER\DOCUMENTS\GITREPOS\PACMAN\PROYECTO1\DEPS\LIB\SDL2_MIXER.LIB
C:\PROGRAM FILES (X86)\WINDOWS KITS\8.1\LIB\WINV6.3\UM\X86\OPENGL32.LIB
C:\USERS\NEYCKER\DOCUMENTS\GITREPOS\PACMAN\PROYECTO1\DEPS\LIB\GLEW32.LIB
C:\USERS\NEYCKER\DOCUMENTS\GITREPOS\PACMAN\PROYECTO1\DEBUG\BENGINE.LIB
C:\PROGRAM FILES (X86)\WINDOWS KITS\8.1\LIB\WINV6.3\UM\X86\KERNEL32.LIB
C:\PROGRAM FILES (X86)\WINDOWS KITS\8.1\LIB\WINV6.3\UM\X86\USER32.LIB
C:\PROGRAM FILES (X86)\WINDOWS KITS\8.1\LIB\WINV6.3\UM\X86\GDI32.LIB
C:\PROGRAM FILES (X86)\WINDOWS KITS\8.1\LIB\WINV6.3\UM\X86\WINSPOOL.LIB
C:\PROGRAM FILES (X86)\WINDOWS KITS\8.1\LIB\WINV6.3\UM\X86\COMDLG32.LIB
C:\PROGRAM FILES (X86)\WINDOWS KITS\8.1\LIB\WINV6.3\UM\X86\ADVAPI32.LIB
C:\PROGRAM FILES (X86)\WINDOWS KITS\8.1\LIB\WINV6.3\UM\X86\SHELL32.LIB
C:\PROGRAM FILES (X86)\WINDOWS KITS\8.1\LIB\WINV6.3\UM\X86\OLE32.LIB
C:\PROGRAM FILES (X86)\WINDOWS KITS\8.1\LIB\WINV6.3\UM\X86\OLEAUT32.LIB
C:\PROGRAM FILES (X86)\WINDOWS KITS\8.1\LIB\WINV6.3\UM\X86\UUID.LIB
C:\PROGRAM FILES (X86)\WINDOWS KITS\8.1\LIB\WINV6.3\UM\X86\ODBC32.LIB
C:\PROGRAM FILES (X86)\WINDOWS KITS\8.1\LIB\WINV6.3\UM\X86\ODBCCP32.LIB
C:\USERS\NEYCKER\DOCUMENTS\GITREPOS\PACMAN\PROYECTO1\PROYECTO1\DEBUG\AGENTE.OBJ
C:\USERS\NEYCKER\DOCUMENTS\GITREPOS\PACMAN\PROYECTO1\PROYECTO1\DEBUG\COCO.OBJ
C:\USERS\NEYCKER\DOCUMENTS\GITREPOS\PACMAN\PROYECTO1\PROYECTO1\DEBUG\ELEMENTOESTATICO.OBJ
C:\USERS\NEYCKER\DOCUMENTS\GITREPOS\PACMAN\PROYECTO1\PROYECTO1\DEBUG\ESTADISTICA.OBJ
C:\USERS\NEYCKER\DOCUMENTS\GITREPOS\PACMAN\PROYECTO1\PROYECTO1\DEBUG\FANTASMA.OBJ
C:\USERS\NEYCKER\DOCUMENTS\GITREPOS\PACMAN\PROYECTO1\PROYECTO1\DEBUG\FRUTA.OBJ
C:\USERS\NEYCKER\DOCUMENTS\GITREPOS\PACMAN\PROYECTO1\PROYECTO1\DEBUG\JUEGOPRINCIPAL.OBJ
C:\USERS\NEYCKER\DOCUMENTS\GITREPOS\PACMAN\PROYECTO1\PROYECTO1\DEBUG\NIVEL.OBJ
C:\USERS\NEYCKER\DOCUMENTS\GITREPOS\PACMAN\PROYECTO1\PROYECTO1\DEBUG\PACMAN.OBJ
C:\USERS\NEYCKER\DOCUMENTS\GITREPOS\PACMAN\PROYECTO1\PROYECTO1\DEBUG\PROYECTO1.OBJ
C:\USERS\NEYCKER\DOCUMENTS\GITREPOS\PACMAN\PROYECTO1\PROYECTO1\DEBUG\PUERTA.OBJ
C:\USERS\NEYCKER\DOCUMENTS\GITREPOS\PACMAN\PROYECTO1\PROYECTO1\DEBUG\STDAFX.OBJ
C:\WINDOWS\SYSTEM32\TZRES.DLL
C:\WINDOWS\GLOBALIZATION\SORTING\SORTDEFAULT.NLS
C:\PROGRAM FILES (X86)\MICROSOFT VISUAL STUDIO 12.0\VC\LIB\MSVCPRTD.LIB
C:\PROGRAM FILES (X86)\MICROSOFT VISUAL STUDIO 12.0\VC\LIB\MSVCRTD.LIB
C:\PROGRAM FILES (X86)\MICROSOFT VISUAL STUDIO 12.0\VC\LIB\OLDNAMES.LIB
C:\PROGRAM FILES (X86)\MICROSOFT VISUAL STUDIO 12.0\VC\LIB\MSVCRT.LIB
C:\PROGRAM FILES (X86)\MICROSOFT VISUAL STUDIO 12.0\VC\BIN\1033\LINKUI.DLL
C:\PROGRAM FILES (X86)\WINDOWS KITS\8.1\BIN\X86\RC.EXE
C:\PROGRAM FILES (X86)\MICROSOFT VISUAL STUDIO 12.0\VC\BIN\CVTRES.EXE
^C:\USERS\NEYCKER\DOCUMENTS\GITREPOS\PACMAN\01CODIGOFUENTE\PROYECTO1\PROYECTO1\DEBUG\AGENTE.OBJ|C:\USERS\NEYCKER\DOCUMENTS\GITREPOS\PACMAN\01CODIGOFUENTE\PROYECTO1\PROYECTO1\DEBUG\COCO.OBJ|C:\USERS\NEYCKER\DOCUMENTS\GITREPOS\PACMAN\01CODIGOFUENTE\PROYECTO1\PROYECTO1\DEBUG\ELEMENTOESTATICO.OBJ|C:\USERS\NEYCKER\DOCUMENTS\GITREPOS\PACMAN\01CODIGOFUENTE\PROYECTO1\PROYECTO1\DEBUG\ESTADISTICA.OBJ|C:\USERS\NEYCKER\DOCUMENTS\GITREPOS\PACMAN\01CODIGOFUENTE\PROYECTO1\PROYECTO1\DEBUG\FANTASMA.OBJ|C:\USERS\NEYCKER\DOCUMENTS\GITREPOS\PACMAN\01CODIGOFUENTE\PROYECTO1\PROYECTO1\DEBUG\FRUTA.OBJ|C:\USERS\NEYCKER\DOCUMENTS\GITREPOS\PACMAN\01CODIGOFUENTE\PROYECTO1\PROYECTO1\DEBUG\JUEGOPRINCIPAL.OBJ|C:\USERS\NEYCKER\DOCUMENTS\GITREPOS\PACMAN\01CODIGOFUENTE\PROYECTO1\PROYECTO1\DEBUG\NIVEL.OBJ|C:\USERS\NEYCKER\DOCUMENTS\GITREPOS\PACMAN\01CODIGOFUENTE\PROYECTO1\PROYECTO1\DEBUG\PACMAN.OBJ|C:\USERS\NEYCKER\DOCUMENTS\GITREPOS\PACMAN\01CODIGOFUENTE\PROYECTO1\PROYECTO1\DEBUG\PROYECTO1.OBJ|C:\USERS\NEYCKER\DOCUMENTS\GITREPOS\PACMAN\01CODIGOFUENTE\PROYECTO1\PROYECTO1\DEBUG\PUERTA.OBJ|C:\USERS\NEYCKER\DOCUMENTS\GITREPOS\PACMAN\01CODIGOFUENTE\PROYECTO1\PROYECTO1\DEBUG\STDAFX.OBJ
C:\USERS\NEYCKER\DOCUMENTS\GITREPOS\PACMAN\01CODIGOFUENTE\PROYECTO1\DEPS\LIB\SDL2.LIB
C:\USERS\NEYCKER\DOCUMENTS\GITREPOS\PACMAN\01CODIGOFUENTE\PROYECTO1\DEPS\LIB\SDL2MAIN.LIB
C:\USERS\NEYCKER\DOCUMENTS\GITREPOS\PACMAN\01CODIGOFUENTE\PROYECTO1\DEPS\LIB\SDL2_TTF.LIB
C:\USERS\NEYCKER\DOCUMENTS\GITREPOS\PACMAN\01CODIGOFUENTE\PROYECTO1\DEPS\LIB\SDL2_MIXER.LIB
C:\PROGRAM FILES (X86)\WINDOWS KITS\8.1\LIB\WINV6.3\UM\X86\OPENGL32.LIB
C:\USERS\NEYCKER\DOCUMENTS\GITREPOS\PACMAN\01CODIGOFUENTE\PROYECTO1\DEPS\LIB\GLEW32.LIB
C:\USERS\NEYCKER\DOCUMENTS\GITREPOS\PACMAN\01CODIGOFUENTE\PROYECTO1\DEBUG\BENGINE.LIB
C:\PROGRAM FILES (X86)\WINDOWS KITS\8.1\LIB\WINV6.3\UM\X86\KERNEL32.LIB
C:\PROGRAM FILES (X86)\WINDOWS KITS\8.1\LIB\WINV6.3\UM\X86\USER32.LIB
C:\PROGRAM FILES (X86)\WINDOWS KITS\8.1\LIB\WINV6.3\UM\X86\GDI32.LIB
C:\PROGRAM FILES (X86)\WINDOWS KITS\8.1\LIB\WINV6.3\UM\X86\WINSPOOL.LIB
C:\PROGRAM FILES (X86)\WINDOWS KITS\8.1\LIB\WINV6.3\UM\X86\COMDLG32.LIB
C:\PROGRAM FILES (X86)\WINDOWS KITS\8.1\LIB\WINV6.3\UM\X86\ADVAPI32.LIB
C:\PROGRAM FILES (X86)\WINDOWS KITS\8.1\LIB\WINV6.3\UM\X86\SHELL32.LIB
C:\PROGRAM FILES (X86)\WINDOWS KITS\8.1\LIB\WINV6.3\UM\X86\OLE32.LIB
C:\PROGRAM FILES (X86)\WINDOWS KITS\8.1\LIB\WINV6.3\UM\X86\OLEAUT32.LIB
C:\PROGRAM FILES (X86)\WINDOWS KITS\8.1\LIB\WINV6.3\UM\X86\UUID.LIB
C:\PROGRAM FILES (X86)\WINDOWS KITS\8.1\LIB\WINV6.3\UM\X86\ODBC32.LIB
C:\PROGRAM FILES (X86)\WINDOWS KITS\8.1\LIB\WINV6.3\UM\X86\ODBCCP32.LIB
C:\USERS\NEYCKER\DOCUMENTS\GITREPOS\PACMAN\01CODIGOFUENTE\PROYECTO1\PROYECTO1\DEBUG\AGENTE.OBJ
C:\USERS\NEYCKER\DOCUMENTS\GITREPOS\PACMAN\01CODIGOFUENTE\PROYECTO1\PROYECTO1\DEBUG\COCO.OBJ
C:\USERS\NEYCKER\DOCUMENTS\GITREPOS\PACMAN\01CODIGOFUENTE\PROYECTO1\PROYECTO1\DEBUG\ELEMENTOESTATICO.OBJ
C:\USERS\NEYCKER\DOCUMENTS\GITREPOS\PACMAN\01CODIGOFUENTE\PROYECTO1\PROYECTO1\DEBUG\ESTADISTICA.OBJ
C:\USERS\NEYCKER\DOCUMENTS\GITREPOS\PACMAN\01CODIGOFUENTE\PROYECTO1\PROYECTO1\DEBUG\FANTASMA.OBJ
C:\USERS\NEYCKER\DOCUMENTS\GITREPOS\PACMAN\01CODIGOFUENTE\PROYECTO1\PROYECTO1\DEBUG\FRUTA.OBJ
C:\USERS\NEYCKER\DOCUMENTS\GITREPOS\PACMAN\01CODIGOFUENTE\PROYECTO1\PROYECTO1\DEBUG\JUEGOPRINCIPAL.OBJ
C:\USERS\NEYCKER\DOCUMENTS\GITREPOS\PACMAN\01CODIGOFUENTE\PROYECTO1\PROYECTO1\DEBUG\NIVEL.OBJ
C:\USERS\NEYCKER\DOCUMENTS\GITREPOS\PACMAN\01CODIGOFUENTE\PROYECTO1\PROYECTO1\DEBUG\PACMAN.OBJ
C:\USERS\NEYCKER\DOCUMENTS\GITREPOS\PACMAN\01CODIGOFUENTE\PROYECTO1\PROYECTO1\DEBUG\PROYECTO1.OBJ
C:\USERS\NEYCKER\DOCUMENTS\GITREPOS\PACMAN\01CODIGOFUENTE\PROYECTO1\PROYECTO1\DEBUG\PUERTA.OBJ
C:\USERS\NEYCKER\DOCUMENTS\GITREPOS\PACMAN\01CODIGOFUENTE\PROYECTO1\PROYECTO1\DEBUG\STDAFX.OBJ
C:\WINDOWS\SYSTEM32\TZRES.DLL
C:\WINDOWS\GLOBALIZATION\SORTING\SORTDEFAULT.NLS
C:\PROGRAM FILES (X86)\MICROSOFT VISUAL STUDIO 12.0\VC\LIB\MSVCPRTD.LIB
C:\PROGRAM FILES (X86)\MICROSOFT VISUAL STUDIO 12.0\VC\LIB\MSVCRTD.LIB
C:\PROGRAM FILES (X86)\MICROSOFT VISUAL STUDIO 12.0\VC\LIB\OLDNAMES.LIB
C:\PROGRAM FILES (X86)\MICROSOFT VISUAL STUDIO 12.0\VC\LIB\MSVCRT.LIB
