^C:\USERS\NEYCKER\DOCUMENTS\GITREPOS\PACMAN\PROYECTO1\PROYECTO1\DEBUG\AGENTE.OBJ|C:\USERS\NEYCKER\DOCUMENTS\GITREPOS\PACMAN\PROYECTO1\PROYECTO1\DEBUG\COCO.OBJ|C:\USERS\NEYCKER\DOCUMENTS\GITREPOS\PACMAN\PROYECTO1\PROYECTO1\DEBUG\ELEMENTOESTATICO.OBJ|C:\USERS\NEYCKER\DOCUMENTS\GITREPOS\PACMAN\PROYECTO1\PROYECTO1\DEBUG\ESTADISTICA.OBJ|C:\USERS\NEYCKER\DOCUMENTS\GITREPOS\PACMAN\PROYECTO1\PROYECTO1\DEBUG\FANTASMA.OBJ|C:\USERS\NEYCKER\DOCUMENTS\GITREPOS\PACMAN\PROYECTO1\PROYECTO1\DEBUG\FRUTA.OBJ|C:\USERS\NEYCKER\DOCUMENTS\GITREPOS\PACMAN\PROYECTO1\PROYECTO1\DEBUG\JUEGOPRINCIPAL.OBJ|C:\USERS\NEYCKER\DOCUMENTS\GITREPOS\PACMAN\PROYECTO1\PROYECTO1\DEBUG\NIVEL.OBJ|C:\USERS\NEYCKER\DOCUMENTS\GITREPOS\PACMAN\PROYECTO1\PROYECTO1\DEBUG\PACMAN.OBJ|C:\USERS\NEYCKER\DOCUMENTS\GITREPOS\PACMAN\PROYECTO1\PROYECTO1\DEBUG\PROYECTO1.OBJ|C:\USERS\NEYCKER\DOCUMENTS\GITREPOS\PACMAN\PROYECTO1\PROYECTO1\DEBUG\PUERTA.OBJ|C:\USERS\NEYCKER\DOCUMENTS\GITREPOS\PACMAN\PROYECTO1\PROYECTO1\DEBUG\STDAFX.OBJ
C:\USERS\NEYCKER\DOCUMENTS\GITREPOS\PACMAN\PROYECTO1\DEBUG\PROYECTO1.ILK
C:\USERS\NEYCKER\DOCUMENTS\GITREPOS\PACMAN\PROYECTO1\DEBUG\PROYECTO1.EXE
C:\USERS\NEYCKER\DOCUMENTS\GITREPOS\PACMAN\PROYECTO1\DEBUG\PROYECTO1.PDB
^C:\USERS\PC\DOCUMENTS\REPOS\PACMAN\PROYECTO1\PROYECTO1\DEBUG\AGENTE.OBJ|C:\USERS\PC\DOCUMENTS\REPOS\PACMAN\PROYECTO1\PROYECTO1\DEBUG\COCO.OBJ|C:\USERS\PC\DOCUMENTS\REPOS\PACMAN\PROYECTO1\PROYECTO1\DEBUG\ELEMENTOESTATICO.OBJ|C:\USERS\PC\DOCUMENTS\REPOS\PACMAN\PROYECTO1\PROYECTO1\DEBUG\ESTADISTICA.OBJ|C:\USERS\PC\DOCUMENTS\REPOS\PACMAN\PROYECTO1\PROYECTO1\DEBUG\FANTASMA.OBJ|C:\USERS\PC\DOCUMENTS\REPOS\PACMAN\PROYECTO1\PROYECTO1\DEBUG\FRUTA.OBJ|C:\USERS\PC\DOCUMENTS\REPOS\PACMAN\PROYECTO1\PROYECTO1\DEBUG\JUEGOPRINCIPAL.OBJ|C:\USERS\PC\DOCUMENTS\REPOS\PACMAN\PROYECTO1\PROYECTO1\DEBUG\NIVEL.OBJ|C:\USERS\PC\DOCUMENTS\REPOS\PACMAN\PROYECTO1\PROYECTO1\DEBUG\PACMAN.OBJ|C:\USERS\PC\DOCUMENTS\REPOS\PACMAN\PROYECTO1\PROYECTO1\DEBUG\PROYECTO1.OBJ|C:\USERS\PC\DOCUMENTS\REPOS\PACMAN\PROYECTO1\PROYECTO1\DEBUG\PUERTA.OBJ|C:\USERS\PC\DOCUMENTS\REPOS\PACMAN\PROYECTO1\PROYECTO1\DEBUG\STDAFX.OBJ
C:\USERS\PC\DOCUMENTS\REPOS\PACMAN\PROYECTO1\DEBUG\PROYECTO1.ILK
C:\USERS\PC\DOCUMENTS\REPOS\PACMAN\PROYECTO1\DEBUG\PROYECTO1.EXE
C:\USERS\PC\DOCUMENTS\REPOS\PACMAN\PROYECTO1\DEBUG\PROYECTO1.PDB
