^C:\USERS\NEYCKER\DOCUMENTS\GITREPOS\PACMAN\PROYECTO1\BENGINE\DEBUG\AUDIOENGINE.OBJ|C:\USERS\NEYCKER\DOCUMENTS\GITREPOS\PACMAN\PROYECTO1\BENGINE\DEBUG\BENGINE.OBJ|C:\USERS\NEYCKER\DOCUMENTS\GITREPOS\PACMAN\PROYECTO1\BENGINE\DEBUG\BENGINEERRORS.OBJ|C:\USERS\NEYCKER\DOCUMENTS\GITREPOS\PACMAN\PROYECTO1\BENGINE\DEBUG\CAMERA2D.OBJ|C:\USERS\NEYCKER\DOCUMENTS\GITREPOS\PACMAN\PROYECTO1\BENGINE\DEBUG\GLSLPROGRAM.OBJ|C:\USERS\NEYCKER\DOCUMENTS\GITREPOS\PACMAN\PROYECTO1\BENGINE\DEBUG\IMAGELOADER.OBJ|C:\USERS\NEYCKER\DOCUMENTS\GITREPOS\PACMAN\PROYECTO1\BENGINE\DEBUG\INPUTMANAGER.OBJ|C:\USERS\NEYCKER\DOCUMENTS\GITREPOS\PACMAN\PROYECTO1\BENGINE\DEBUG\IOMANAGER.OBJ|C:\USERS\NEYCKER\DOCUMENTS\GITREPOS\PACMAN\PROYECTO1\BENGINE\DEBUG\PARTICLEBATCH2D.OBJ|C:\USERS\NEYCKER\DOCUMENTS\GITREPOS\PACMAN\PROYECTO1\BENGINE\DEBUG\PARTICLEENGINE2D.OBJ|C:\USERS\NEYCKER\DOCUMENTS\GITREPOS\PACMAN\PROYECTO1\BENGINE\DEBUG\PICOPNG.OBJ|C:\USERS\NEYCKER\DOCUMENTS\GITREPOS\PACMAN\PROYECTO1\BENGINE\DEBUG\RESOURCEMANAGER.OBJ|C:\USERS\NEYCKER\DOCUMENTS\GITREPOS\PACMAN\PROYECTO1\BENGINE\DEBUG\SPRITE.OBJ|C:\USERS\NEYCKER\DOCUMENTS\GITREPOS\PACMAN\PROYECTO1\BENGINE\DEBUG\SPRITEBATCH.OBJ|C:\USERS\NEYCKER\DOCUMENTS\GITREPOS\PACMAN\PROYECTO1\BENGINE\DEBUG\SPRITEFONT.OBJ|C:\USERS\NEYCKER\DOCUMENTS\GITREPOS\PACMAN\PROYECTO1\BENGINE\DEBUG\TEXTURECACHE.OBJ|C:\USERS\NEYCKER\DOCUMENTS\GITREPOS\PACMAN\PROYECTO1\BENGINE\DEBUG\TIMING.OBJ|C:\USERS\NEYCKER\DOCUMENTS\GITREPOS\PACMAN\PROYECTO1\BENGINE\DEBUG\WINDOW.OBJ
C:\USERS\NEYCKER\DOCUMENTS\GITREPOS\PACMAN\PROYECTO1\DEBUG\BENGINE.LIB
^C:\USERS\NEYCKER\DOCUMENTS\GITREPOS\PACMAN\01CODIGOFUENTE\PROYECTO1\BENGINE\DEBUG\AUDIOENGINE.OBJ|C:\USERS\NEYCKER\DOCUMENTS\GITREPOS\PACMAN\01CODIGOFUENTE\PROYECTO1\BENGINE\DEBUG\BENGINE.OBJ|C:\USERS\NEYCKER\DOCUMENTS\GITREPOS\PACMAN\01CODIGOFUENTE\PROYECTO1\BENGINE\DEBUG\BENGINEERRORS.OBJ|C:\USERS\NEYCKER\DOCUMENTS\GITREPOS\PACMAN\01CODIGOFUENTE\PROYECTO1\BENGINE\DEBUG\CAMERA2D.OBJ|C:\USERS\NEYCKER\DOCUMENTS\GITREPOS\PACMAN\01CODIGOFUENTE\PROYECTO1\BENGINE\DEBUG\GLSLPROGRAM.OBJ|C:\USERS\NEYCKER\DOCUMENTS\GITREPOS\PACMAN\01CODIGOFUENTE\PROYECTO1\BENGINE\DEBUG\IMAGELOADER.OBJ|C:\USERS\NEYCKER\DOCUMENTS\GITREPOS\PACMAN\01CODIGOFUENTE\PROYECTO1\BENGINE\DEBUG\INPUTMANAGER.OBJ|C:\USERS\NEYCKER\DOCUMENTS\GITREPOS\PACMAN\01CODIGOFUENTE\PROYECTO1\BENGINE\DEBUG\IOMANAGER.OBJ|C:\USERS\NEYCKER\DOCUMENTS\GITREPOS\PACMAN\01CODIGOFUENTE\PROYECTO1\BENGINE\DEBUG\PARTICLEBATCH2D.OBJ|C:\USERS\NEYCKER\DOCUMENTS\GITREPOS\PACMAN\01CODIGOFUENTE\PROYECTO1\BENGINE\DEBUG\PARTICLEENGINE2D.OBJ|C:\USERS\NEYCKER\DOCUMENTS\GITREPOS\PACMAN\01CODIGOFUENTE\PROYECTO1\BENGINE\DEBUG\PICOPNG.OBJ|C:\USERS\NEYCKER\DOCUMENTS\GITREPOS\PACMAN\01CODIGOFUENTE\PROYECTO1\BENGINE\DEBUG\RESOURCEMANAGER.OBJ|C:\USERS\NEYCKER\DOCUMENTS\GITREPOS\PACMAN\01CODIGOFUENTE\PROYECTO1\BENGINE\DEBUG\SPRITE.OBJ|C:\USERS\NEYCKER\DOCUMENTS\GITREPOS\PACMAN\01CODIGOFUENTE\PROYECTO1\BENGINE\DEBUG\SPRITEBATCH.OBJ|C:\USERS\NEYCKER\DOCUMENTS\GITREPOS\PACMAN\01CODIGOFUENTE\PROYECTO1\BENGINE\DEBUG\SPRITEFONT.OBJ|C:\USERS\NEYCKER\DOCUMENTS\GITREPOS\PACMAN\01CODIGOFUENTE\PROYECTO1\BENGINE\DEBUG\TEXTURECACHE.OBJ|C:\USERS\NEYCKER\DOCUMENTS\GITREPOS\PACMAN\01CODIGOFUENTE\PROYECTO1\BENGINE\DEBUG\TIMING.OBJ|C:\USERS\NEYCKER\DOCUMENTS\GITREPOS\PACMAN\01CODIGOFUENTE\PROYECTO1\BENGINE\DEBUG\WINDOW.OBJ
C:\USERS\NEYCKER\DOCUMENTS\GITREPOS\PACMAN\01CODIGOFUENTE\PROYECTO1\DEBUG\BENGINE.LIB
